<svg width="147" height="31" viewBox="0 0 147 31" fill="none" xmlns="http://www.w3.org/2000/svg">
<path fill-rule="evenodd" clip-rule="evenodd" d="M28.2559 23.4896L32.8644 15.5087L28.2559 7.54525L26.5102 10.5424L29.3906 15.5087L26.5102 20.4924L28.2559 23.4896ZM18.6897 25.0056L20.4354 28.0028H11.2009L4.84668 17.0247H8.32053L12.9291 25.0056H18.6897ZM20.4179 21.991H14.6747L11.7944 17.0247H15.3031L16.4204 18.959H20.4004L22.3905 15.5087L20.4004 12.0585H16.4204L15.3031 13.9927C11.8118 13.9927 8.32053 13.9927 4.84668 13.9927L11.2009 3.01462H20.4354L18.6897 6.0118H12.9465L10.0662 10.9955H13.54L14.6747 9.02642H20.4179C22.1636 6.0118 23.8918 3.01461 25.6374 0H9.4552L0.5 15.5087L9.4552 31H25.6374C23.9092 28.0028 22.1636 24.9882 20.4179 21.991ZM28.2559 1.51602L36.3557 15.5087L28.2559 29.5014C26.5102 26.4868 24.782 23.4896 23.0364 20.475L25.9167 15.5087L23.0364 10.5424C24.7646 7.54525 26.5102 4.53063 28.2559 1.51602Z" fill="#B39771"/>
<path d="M134.691 10.334H136.506L140.607 18.4434H140.697L144.731 10.334H146.501V20.9144H144.731V12.2434H144.663L140.338 20.9144H139.98L135.61 12.3108H135.498V20.9144H134.713V10.334H134.691ZM120.281 10.334H122.052V17.1855C122.052 17.6347 122.119 18.0615 122.276 18.4659C122.433 18.8702 122.657 19.2072 122.948 19.4992C123.24 19.7913 123.576 20.0384 123.979 20.1956C124.382 20.3753 124.831 20.4652 125.324 20.4652C125.839 20.4652 126.287 20.3753 126.691 20.1956C127.094 20.0159 127.43 19.7913 127.722 19.4992C128.013 19.2072 128.215 18.8478 128.371 18.4659C128.528 18.0615 128.596 17.6347 128.596 17.1855V10.334H129.38V17.1855C129.38 17.7246 129.29 18.2413 129.111 18.713C128.932 19.1847 128.663 19.6115 128.282 19.971C127.901 20.3304 127.43 20.6224 126.848 20.8246C126.265 21.0268 125.57 21.1391 124.741 21.1391C124.024 21.1391 123.374 21.0268 122.814 20.8246C122.254 20.6224 121.783 20.3304 121.402 19.971C121.021 19.6115 120.73 19.1847 120.55 18.6905C120.349 18.1963 120.259 17.6797 120.259 17.1405V10.334H120.281ZM115.979 10.334V11.0079H112.169V20.892H110.399V11.0079H106.567V10.334H115.979ZM102.757 10.334V11.0079H97.1994V14.7818H100.919V15.4558H97.1994V20.1956H102.757V20.8695H95.429V10.334H102.757ZM78.1286 10.334H79.9438L84.0448 18.4434H84.1344L88.1682 10.334H89.9386V20.9144H88.1682V12.2434H88.101L83.7759 20.9144H83.4173L79.0474 12.3108H78.9353V20.9144H78.151V10.334H78.1286ZM67.2598 20.6224C67.8649 20.6224 68.4027 20.4876 68.8509 20.2405C69.3215 19.9934 69.7025 19.634 70.0162 19.1847C70.33 18.7355 70.5765 18.1963 70.7334 17.5673C70.8902 16.9384 70.9799 16.2644 70.9799 15.5456C70.9799 14.8268 70.8902 14.1529 70.7334 13.5463C70.5765 12.9398 70.33 12.4231 70.0162 11.9739C69.7025 11.5471 69.3215 11.1876 68.8509 10.963C68.3803 10.7159 67.8425 10.6036 67.2598 10.6036C66.6548 10.6036 66.0945 10.7159 65.6463 10.963C65.1757 11.2101 64.7947 11.5471 64.481 11.9739C64.1673 12.4007 63.9208 12.9398 63.7639 13.5463C63.607 14.1529 63.5174 14.8043 63.5174 15.5456C63.5174 16.2869 63.5846 16.9608 63.7639 17.5673C63.9208 18.1963 64.1673 18.713 64.481 19.1847C64.7947 19.634 65.1757 19.9934 65.6463 20.2405C66.0945 20.5101 66.6324 20.6224 67.2598 20.6224ZM67.2598 21.1615C66.722 21.1615 66.1842 21.0942 65.6911 20.9594C65.1981 20.8246 64.7275 20.6449 64.3017 20.3978C63.8759 20.1507 63.4726 19.8586 63.1364 19.5217C62.7779 19.1847 62.4865 18.8029 62.24 18.376C61.9935 17.9717 61.7918 17.5224 61.6574 17.0507C61.5229 16.5789 61.4557 16.0847 61.4557 15.5681C61.4557 15.0514 61.5229 14.5797 61.6574 14.1079C61.7918 13.6362 61.9935 13.2094 62.24 12.805C62.4865 12.4007 62.7779 12.0413 63.1364 11.7043C63.495 11.3673 63.8759 11.0978 64.3017 10.8507C64.7275 10.626 65.1981 10.4239 65.6911 10.3115C66.1842 10.1768 66.722 10.1094 67.2598 10.1094C67.7977 10.1094 68.3355 10.1768 68.8285 10.3115C69.3215 10.4463 69.7921 10.626 70.2179 10.8507C70.6437 11.0978 71.0471 11.3673 71.3832 11.7043C71.7418 12.0413 72.0331 12.4007 72.2796 12.805C72.5261 13.2094 72.7278 13.6362 72.8623 14.1079C72.9967 14.5797 73.064 15.0514 73.064 15.5681C73.064 16.0847 72.9967 16.5789 72.8623 17.0507C72.7278 17.5224 72.5261 17.9717 72.2796 18.3985C72.0331 18.8253 71.7418 19.1847 71.3832 19.5442C71.0247 19.8811 70.6437 20.1731 70.2179 20.4202C69.7921 20.6673 69.3215 20.8471 68.8285 20.9818C68.3131 21.0942 67.7977 21.1615 67.2598 21.1615ZM48.3459 15.6579C48.3459 16.3992 48.458 17.0731 48.6821 17.6572C48.9062 18.2413 49.2199 18.7355 49.6009 19.1398C49.9819 19.5442 50.4525 19.8586 50.9903 20.0833C51.5281 20.3079 52.0884 20.3978 52.7159 20.3978C53.0744 20.3978 53.433 20.3304 53.7915 20.1731C54.1277 20.0384 54.4638 19.8362 54.7551 19.6115C55.0465 19.3869 55.3154 19.1173 55.5395 18.8253C55.7636 18.5333 55.9653 18.2413 56.1221 17.9492L56.8617 18.421C56.6376 18.7804 56.3911 19.1173 56.0997 19.4543C55.8084 19.7913 55.4723 20.0833 55.0689 20.3304C54.6879 20.5775 54.2397 20.7797 53.7467 20.9369C53.2537 21.0942 52.7159 21.1615 52.1108 21.1615C51.5281 21.1615 50.9903 21.0942 50.4749 20.9594C49.9594 20.8246 49.4888 20.6449 49.063 20.3978C48.6373 20.1507 48.2339 19.8586 47.8977 19.5217C47.5616 19.1847 47.2703 18.8029 47.0238 18.3985C46.7997 17.9942 46.598 17.5449 46.4859 17.0956C46.3515 16.6239 46.3066 16.1521 46.3066 15.6579C46.3066 15.1637 46.3739 14.6695 46.5083 14.2202C46.6428 13.7485 46.8221 13.3217 47.0686 12.8949C47.3151 12.4905 47.6064 12.1086 47.9426 11.7492C48.3011 11.4123 48.6821 11.1202 49.1079 10.8731C49.5337 10.626 50.0267 10.4463 50.5421 10.3115C51.0575 10.1768 51.6178 10.1094 52.2004 10.1094C52.7607 10.1094 53.2761 10.1768 53.7467 10.334C54.2173 10.4913 54.6431 10.6934 55.0465 10.9405C55.4498 11.1876 55.786 11.4797 56.0773 11.8166C56.3687 12.1536 56.6376 12.4905 56.8617 12.85L56.0997 13.3666C55.6515 12.513 55.1585 11.884 54.6207 11.4797C54.0829 11.0753 53.4554 10.8731 52.7383 10.8731C52.1332 10.8731 51.5505 10.9855 51.0351 11.2101C50.4973 11.4347 50.0491 11.7492 49.6457 12.176C49.2423 12.5804 48.951 13.0971 48.7045 13.6811C48.458 14.2427 48.3459 14.9166 48.3459 15.6579Z" fill="#B39771"/>
</svg>
