<svg width="63" height="58" viewBox="0 0 63 58" fill="none" xmlns="http://www.w3.org/2000/svg">
<path d="M60.0168 36.5874H48.0406C43.6432 36.5847 40.0789 33.0231 40.0762 28.6257C40.0762 24.2284 43.6432 20.6668 48.0406 20.6641H60.0168" stroke="#B39771" stroke-width="5" stroke-linecap="round" stroke-linejoin="round"/>
<path d="M49.395 28.4418H48.473" stroke="#B39771" stroke-width="5" stroke-linecap="round" stroke-linejoin="round"/>
<path fill-rule="evenodd" clip-rule="evenodd" d="M18.9208 2.875H44.491C53.0647 2.875 60.0153 9.82563 60.0153 18.3993V39.6314C60.0153 48.2051 53.0647 55.1557 44.491 55.1557H18.9208C10.3471 55.1557 3.39648 48.2051 3.39648 39.6314V18.3993C3.39648 9.82563 10.3471 2.875 18.9208 2.875Z" stroke="#B39771" stroke-width="5" stroke-linecap="round" stroke-linejoin="round"/>
<path d="M16.8145 16.3012H32.7864" stroke="#B39771" stroke-width="5" stroke-linecap="round" stroke-linejoin="round"/>
</svg>
